{
  "CN": "www.example.com",
  "key": {
    "algo": "rsa",
    "size": 4096
  },
  "names": [{
    "C": "ES",
    "L": "Ourense",
    "O": "My Successful company",
    "OU": "Minion apartment",
    "ST": "Galicia"
  }]
}
